Speeding up R
…
There’s a lag between changes to tidyverse being reflected in tidytable

library(tidytable)
# Here we explicitly create tidytable from a regular data.frame
# But passing a regular data.frame or data.table into any tidytable function
# will implicitly change it to be a tidytable object
dtt <- as_tidytable(df)

dtt |> 
    count(SICCode.SicText_1) |>
    filter(n >= 10) |>
    select(SICCode.SicText_1) 

# A tidytable: 755 × 1
   SICCode.SicText_1                                                       
   <chr>                                                                   
 1 01110 - Growing of cereals (except rice), leguminous crops and oil seeds
 2 01120 - Growing of rice                                                 
 3 01130 - Growing of vegetables and melons, roots and tubers              
 4 01160 - Growing of fibre crops                                          
 5 01190 - Growing of other non-perennial crops                            
 6 01210 - Growing of grapes                                               
 7 01220 - Growing of tropical and subtropical fruits                      
 8 01240 - Growing of pome fruits and stone fruits                         
 9 01250 - Growing of other tree and bush fruits and nuts                  
10 01270 - Growing of beverage crops                                       
# ℹ 745 more rows
…
Loading the package doesn’t affect your environment

Has less coverage than tidytable

library(dtplyr)

# dtplyr operates on `lazy data.tables` which are only created by this function
dtp <- lazy_dt(df)

dtp |> 
    count(SICCode.SicText_1) |>
    filter(n >= 10) |>
    select(SICCode.SicText_1) 

Source: local data table [755 x 1]
Call:   `_DT1`[, .(n = .N), keyby = .(SICCode.SicText_1)][n >= 10, .(SICCode.SicText_1)]

  SICCode.SicText_1                                                       
  <chr>                                                                   
1 01110 - Growing of cereals (except rice), leguminous crops and oil seeds
2 01120 - Growing of rice                                                 
3 01130 - Growing of vegetables and melons, roots and tubers              
4 01160 - Growing of fibre crops                                          
5 01190 - Growing of other non-perennial crops                            
6 01210 - Growing of grapes                                               
# ℹ 749 more rows
…
Errors because the developers haven’t translated word into SQL yet, so it is translated directly but word isn’t a function in SQL

Solution: use substr from base which has been translated but doesn’t do exactly the same

This is more likely to happen the more specific and uncommon a function is

tbl(con_sql, "data_1e6") |> 
  filter(RegAddress.PostTown == 'YORK') |> 
  mutate(postcode = substr(RegAddress.PostCode, 1, 4)) |>
  count(postcode) |>
  arrange(desc(n)) |>
  head(50) |>
  collect()

# A tibble: 23 × 2
   postcode     n
   <chr>    <int>
 1 "YO30"     486
 2 "YO19"     325
 3 "YO26"     271
 4 "YO1 "     241
 5 "YO31"     180
 6 "YO24"     178
 7 "YO10"     172
 8 "YO32"     169
 9 "YO23"     161
10 "YO42"     142
# ℹ 13 more rows
…
word is also not ported to duckdb so again use the substr version

Code is again identical to both SQLite and dtplyr

tbl(con_dd, "data_1e6") |> 
  filter(RegAddress.PostTown == 'YORK') |> 
  mutate(postcode = substr(RegAddress.PostCode, 1, 4)) |>
  count(postcode) |>
  arrange(desc(n)) |>
  head(50) |>
  collect()

# A tibble: 23 × 2
   postcode     n
   <chr>    <dbl>
 1 "YO30"     486
 2 "YO19"     325
 3 "YO26"     271
 4 "YO1 "     241
 5 "YO31"     180
 6 "YO24"     178
 7 "YO10"     172
 8 "YO32"     169
 9 "YO23"     161
10 "YO42"     142
# ℹ 13 more rows
…
